Parte E/CON_SMT/simulation/qsim/Luces.msim.vcd
$comment
	File created using the following command:
		vcd file Luces.msim.vcd -direction
$end
$date
	Fri Oct 31 13:41:30 2025
$end
$version
	ModelSim Version 10.1d
$end
$timescale
	1ps
$end
$scope module Luces_vlg_vec_tst $end
$var reg 1 ! clock $end
$var reg 1 " reset $end
$var reg 1 # X $end
$var wire 1 $ Z0 $end
$var wire 1 % Z1 $end
$var wire 1 & Z2 $end
$var wire 1 ' Z3 $end
$var wire 1 ( sampler $end
$scope module i1 $end
$var wire 1 ) gnd $end
$var wire 1 * vcc $end
$var wire 1 + unknown $end
$var tri1 1 , devclrn $end
$var tri1 1 - devpor $end
$var tri1 1 . devoe $end
$var wire 1 / clock~input_o $end
$var wire 1 0 clock~inputclkctrl_outclk $end
$var wire 1 1 Z0~output_o $end
$var wire 1 2 Z1~output_o $end
$var wire 1 3 Z2~output_o $end
$var wire 1 4 Z3~output_o $end
$var wire 1 5 reset~input_o $end
$var wire 1 6 X~input_o $end
$var wire 1 7 fstate.state_bit_1~0_combout $end
$var wire 1 8 fstate.state_bit_1~1_combout $end
$var wire 1 9 fstate.state_bit_1~q $end
$var wire 1 : fstate.state_bit_2~0_combout $end
$var wire 1 ; fstate.state_bit_2~q $end
$var wire 1 < fstate.state_bit_0~0_combout $end
$var wire 1 = fstate.state_bit_0~1_combout $end
$var wire 1 > fstate.state_bit_0~q $end
$var wire 1 ? Z0~0_combout $end
$var wire 1 @ Z1~0_combout $end
$var wire 1 A Z2~0_combout $end
$var wire 1 B Z3~0_combout $end
$upscope $end
$upscope $end
$enddefinitions $end
#0
$dumpvars
0!
0"
0#
0$
0%
0&
0'
x(
0)
1*
x+
1,
1-
1.
0/
00
01
02
03
04
05
06
07
18
09
0:
0;
0<
1=
0>
0?
0@
0A
1B
$end
#10000
1#
16
0(
1<
0=
#20000
1!
1/
10
1(
19
1:
1A
1@
13
12
1&
1%
#30000
0!
0/
00
0(
#40000
1!
1/
10
1(
1;
0B
0<
17
1?
1=
08
14
11
1'
1$
#50000
0!
0/
00
0(
#60000
1!
1/
10
1(
1>
09
1<
0:
0A
0@
0=
03
02
0&
0%
#70000
0!
0/
00
0(
#80000
1!
1/
10
1(
0>
0;
1B
07
0?
18
04
01
0'
0$
#90000
0#
0!
06
0/
00
0(
0<
1=
#160000
1!
1/
10
1(
1>
19
0B
08
14
1'
#170000
0!
0/
00
0(
#180000
1!
1/
10
1(
09
1<
1:
18
1A
0=
13
1&
#190000
0!
0/
00
0(
#200000
1!
1/
10
1(
0>
1;
19
0<
1@
1?
1=
12
11
1%
1$
#210000
0!
0/
00
0(
#220000
1!
1/
10
1(
1>
1<
0:
08
0?
0=
01
0$
#230000
0!
0/
00
0(
#240000
1!
1/
10
1(
0>
0;
09
1B
0<
18
0A
0@
1=
04
03
02
0'
0&
0%
#250000
0!
0/
00
0(
#310000
1#
16
1(
1<
0=
#320000
1!
1/
10
0(
19
1:
1A
1@
13
12
1&
1%
#330000
0!
0/
00
1(
#340000
1!
1/
10
0(
1;
0B
0<
17
1?
1=
08
14
11
1'
1$
#350000
0#
0!
06
0/
00
1(
07
18
#360000
1!
1/
10
0(
1>
1<
0:
08
0?
0=
01
0$
#370000
0!
0/
00
1(
#380000
1!
1/
10
0(
0>
0;
09
1B
0<
18
0A
0@
1=
04
03
02
0'
0&
0%
#390000
0!
0/
00
1(
#400000
1!
1/
10
0(
1>
19
0B
08
14
1'
#410000
0!
0/
00
1(
